…
    ## Rows: 197,898
    ## Columns: 10
    ## $ betnr     <dbl+lbl> 49914458, 49916216, 49916399, 49916406, 49916493, 499178…
    ## $ jahr      <dbl> 1975, 1975, 1975, 1975, 1975, 1975, 1975, 1975, 1975, 1975, …
    ## $ az_f      <dbl+lbl>   4,  60,   7,   4,   0,  28,  10,  96,   1,   2,   4,  …
    ## $ az_reg    <dbl+lbl>    9,  155,  255,    3,    3,   53,  114,  154,    1,   …
    ## $ az_azubi  <dbl+lbl>  3,  1,  2,  1,  0,  2, 18,  3,  0,  0,  0,  0, 28,  0, …
    ## $ az_atz    <dbl+lbl> 0, 0, 0, 0, 0, 0, 0, 0, 0, 0, 0, 0, 0, 0, 0, 0, 0, 0, 0,…
    ## $ az_tz     <dbl+lbl>  0,  0,  3,  2,  0, 11,  5,  1,  0,  0,  1,  0, 50,  0, …
    ## $ az_f_vz   <dbl+lbl>   3,  59,   5,   1,   0,  16,   4,  93,   1,   2,   3,  …
    ## $ az_f_tz   <dbl+lbl>  0,  0,  2,  2,  0, 10,  5,  1,  0,  0,  1,  0, 50,  0, …
    ## $ az_reg_vz <dbl+lbl>   9, 155, 252,   1,   3,  42, 109, 153,   1,   2,   6,  …
    ## # A tibble: 197,898 × 10
    ##    betnr      jahr az_f   az_reg az_azubi az_atz az_tz az_f_vz az_f_tz az_reg_vz
    ##    <dbl+lbl> <dbl> <dbl+> <dbl+> <dbl+lb> <dbl+> <dbl> <dbl+l> <dbl+l> <dbl+lbl>
    ##  1 49914458   1975  4       9     3       0       0     3       0        9      
    ##  2 49916216   1975 60     155     1       0       0    59       0      155      
    ##  3 49916399   1975  7     255     2       0       3     5       2      252      
    ##  4 49916406   1975  4       3     1       0       2     1       2        1      
    ##  5 49916493   1975  0       3     0       0       0     0       0        3      
    ##  6 49917890   1975 28      53     2       0      11    16      10       42      
    ##  7 49918306   1975 10     114    18       0       5     4       5      109      
    ##  8 49918999   1975 96     154     3       0       1    93       1      153      
    ##  9 49919426   1975  1       1     0       0       0     1       0        1      
    ## 10 49919628   1975  2       2     0       0       0     2       0        2      
    ## # ℹ 197,888 more rows
…
